{
  "project" : {
    "id" : "igra_byki_i_korovy_-1000013664-QhM",
    "name" : "igra_byki_i_korovy_-1000013664-QhM",
    "folder" : "/jaicp"
  },
  "settings" : {
    "language" : "ru",
    "spellingCorrection" : false,
    "classificationAlgorithm" : "sts",
    "timezone" : "UTC",
    "extendedSettings" : {
      "tokenizerEngine" : "mystem",
      "useShared" : false
    },
    "shared" : false
  },
  "intents" : [ {
    "id" : 4662543,
    "path" : "/Давай поиграем",
    "answer" : "",
    "enabled" : true,
    "shared" : false,
    "phrases" : [ {
      "text" : "хочу играть"
    }, {
      "text" : "играть"
    }, {
      "text" : "давай"
    }, {
      "text" : "игра"
    }, {
      "text" : "начнем"
    }, {
      "text" : "начало"
    }, {
      "text" : "старт"
    } ],
    "patterns" : [ ],
    "priority" : 0
  }, {
    "id" : 4662844,
    "path" : "/Несогласие",
    "answer" : "",
    "enabled" : true,
    "shared" : false,
    "phrases" : [ {
      "text" : "нет"
    }, {
      "text" : "не хочу"
    }, {
      "text" : "не буду"
    }, {
      "text" : "неа"
    }, {
      "text" : "не играем"
    }, {
      "text" : "нет игре"
    } ],
    "patterns" : [ ],
    "priority" : 0
  }, {
    "id" : 4662938,
    "path" : "/Согласие",
    "answer" : "",
    "enabled" : true,
    "shared" : false,
    "phrases" : [ {
      "text" : "да"
    }, {
      "text" : "согласен"
    }, {
      "text" : "начнем"
    }, {
      "text" : "хочу"
    }, {
      "text" : "да игре"
    }, {
      "text" : "играем"
    }, {
      "text" : "ага"
    } ],
    "patterns" : [ ],
    "slots" : [ {
      "name" : "Number",
      "entity" : "duckling.number",
      "required" : true,
      "prompts" : [ "Предположи число", "Я загадал число. Какое?", "Число загадано. Давай отгадывать!", "Я загадал число. Есть догадки?", "Я загадал число. Твоя догадка?" ]
    } ],
    "priority" : 0
  }, {
    "id" : 4665016,
    "path" : "/Число",
    "enabled" : true,
    "shared" : false,
    "phrases" : [ {
      "text" : "@duckling.number"
    } ],
    "patterns" : [ ],
    "slots" : [ {
      "name" : "Number",
      "entity" : "duckling.number",
      "required" : true,
      "prompts" : [ ]
    } ],
    "priority" : 0
  } ],
  "entities" : [ {
    "entity" : {
      "id" : 104887,
      "name" : "Новая_сущность",
      "enabled" : true,
      "shared" : false,
      "type" : "annotation",
      "priority" : 1,
      "noSpelling" : true,
      "noMorph" : false,
      "phoneticSearch" : false,
      "fuzzySearch" : false,
      "client" : false
    },
    "records" : [ ]
  } ],
  "enabledSystemEntities" : [ "duckling.number", "duckling.time", "duckling.duration", "duckling.phone-number", "duckling.email", "duckling.url" ],
  "spellerDictionary" : [ ],
  "systemEntities" : [ {
    "name" : "mystem.geo",
    "enabled" : false
  }, {
    "name" : "mystem.persn",
    "enabled" : false
  }, {
    "name" : "mystem.obsc",
    "enabled" : false
  }, {
    "name" : "mystem.patrn",
    "enabled" : false
  }, {
    "name" : "mystem.famn",
    "enabled" : false
  }, {
    "name" : "pymorphy.romn",
    "enabled" : false
  }, {
    "name" : "pymorphy.latn",
    "enabled" : false
  }, {
    "name" : "pymorphy.numb",
    "enabled" : false
  }, {
    "name" : "pymorphy.intg",
    "enabled" : false
  }, {
    "name" : "pymorphy.abbr",
    "enabled" : false
  }, {
    "name" : "pymorphy.name",
    "enabled" : false
  }, {
    "name" : "pymorphy.surn",
    "enabled" : false
  }, {
    "name" : "pymorphy.patr",
    "enabled" : false
  }, {
    "name" : "pymorphy.geox",
    "enabled" : false
  }, {
    "name" : "pymorphy.orgn",
    "enabled" : false
  }, {
    "name" : "duckling.number",
    "version" : "v2",
    "enabled" : true
  }, {
    "name" : "duckling.ordinal",
    "version" : "v2",
    "enabled" : false
  }, {
    "name" : "duckling.amount-of-money",
    "version" : "v2",
    "enabled" : false
  }, {
    "name" : "duckling.distance",
    "version" : "v2",
    "enabled" : false
  }, {
    "name" : "duckling.time",
    "version" : "v2",
    "enabled" : true
  }, {
    "name" : "duckling.date",
    "version" : "v2",
    "enabled" : false
  }, {
    "name" : "duckling.time-of-day",
    "version" : "v2",
    "enabled" : false
  }, {
    "name" : "duckling.duration",
    "version" : "v2",
    "enabled" : true
  }, {
    "name" : "duckling.phone-number",
    "version" : "v2",
    "enabled" : true
  }, {
    "name" : "duckling.email",
    "version" : "v2",
    "enabled" : true
  }, {
    "name" : "duckling.url",
    "version" : "v2",
    "enabled" : true
  }, {
    "name" : "duckling.interval",
    "version" : "v2",
    "enabled" : false
  }, {
    "name" : "mlps-obscene.obscene",
    "enabled" : false
  }, {
    "name" : "zb.datetime",
    "enabled" : false
  }, {
    "name" : "zb.number",
    "enabled" : false
  } ]
}